<?xml version="1.0" encoding="UTF-8"?>
<svg xmlns="http://www.w3.org/2000/svg" xmlns:xlink="http://www.w3.org/1999/xlink" width="300pt" height="300pt" viewBox="0 0 300 300" version="1.2">
<defs>
<clipPath id="clip1">
  <rect x="0" y="0" width="300" height="300"/>
</clipPath>
<g id="surface178" clip-path="url(#clip1)">
<rect x="0" y="0" width="300" height="300" style="fill:rgb(100%,100%,100%);fill-opacity:1;stroke:none;"/>
<path style="fill:none;stroke-width:2;stroke-linecap:butt;stroke-linejoin:miter;stroke:rgb(0.784314%,8.235294%,70.196078%);stroke-opacity:1;stroke-miterlimit:10;" d="M 150 50 L 250 250 L 150 150 L 50 150 L 250 50 L 250 150 L 50 50 L 250 250 L 50 50 L 150 150 L 150 250 L 250 150 L 50 250 L 150 50 L 250 50 L 50 250 L 150 50 L 50 150 L 250 50 L 50 250 "/>
</g>
</defs>
<g id="surface175">
<use xlink:href="#surface178"/>
</g>
</svg>
